Exercise_03
…
Exercise 3.2.1.1

In the simulation above, what is the average dem_prop? What is the standard deviation of dem_prop? How does this change for different values of sample_size?

# A tibble: 90,000 × 5
      id vote  dem_prob_pop sample_size num_sims
   <int> <chr> <chr>        <chr>       <chr>   
 1     1 Dem   0.75         90          1000    
 2     1 Dem   0.75         90          1000    
 3     1 Dem   0.75         90          1000    
 4     1 Rep   0.75         90          1000    
 5     1 Dem   0.75         90          1000    
 6     1 Rep   0.75         90          1000    
 7     1 Dem   0.75         90          1000    
 8     1 Dem   0.75         90          1000    
 9     1 Dem   0.75         90          1000    
10     1 Dem   0.75         90          1000    
# ℹ 89,990 more rows

# A tibble: 500 × 2
      id dem_prop
   <int>    <dbl>
 1     1    0.507
 2     2    0.54 
 3     3    0.547
 4     4    0.517
 5     5    0.54 
 6     6    0.493
 7     7    0.5  
 8     8    0.567
 9     9    0.513
10    10    0.523
# ℹ 490 more rows
…
