Exercise_10
…
# A tibble: 3 × 3
  term         estimate std.error
  <chr>           <dbl>     <dbl>
1 (Intercept)     0.358    0.0582
2 conservative    0.863    0.104 
3 weekly         -0.377    0.116 

broom::tidy(mod)

Warning: 'tidy.numeric' is deprecated.
See help("Deprecated")

# A tibble: 2,102 × 1
   x[,"(Intercept)"] [,"polviews"] [,"weekly"] [,"polviews:weekly"]
               <dbl>         <dbl>       <dbl>                <dbl>
 1                 1             2           0                    0
 2                 1             1           0                    0
 3                 1             0           0                    0
 4                 1             3           1                    3
 5                 1            -1           0                    0
 6                 1             0           1                    0
 7                 1             1           1                    1
 8                 1             0           0                    0
 9                 1             2           0                    0
10                 1             0           0                    0
# ℹ 2,092 more rows
…
