Exercise 01
…
[1] "package:lubridate"

table(penguins$year)

2007 2008 2009 
 110  114  120 

Exercise 1.11

# Use slice() to extract the even-numbered rows in the penguins dataset.

penguins |> 
  slice(seq(2, n(), by = 2))

# A tibble: 172 × 8
   species island    bill_length_mm bill_depth_mm flipper_length_mm body_mass_g
   <fct>   <fct>              <dbl>         <dbl>             <int>       <int>
 1 Adelie  Torgersen           39.5          17.4               186        3800
 2 Adelie  Torgersen           NA            NA                  NA          NA
 3 Adelie  Torgersen           39.3          20.6               190        3650
 4 Adelie  Torgersen           39.2          19.6               195        4675
 5 Adelie  Torgersen           42            20.2               190        4250
 6 Adelie  Torgersen           37.8          17.3               180        3700
 7 Adelie  Torgersen           38.6          21.2               191        3800
 8 Adelie  Torgersen           36.6          17.8               185        3700
 9 Adelie  Torgersen           42.5          20.7               197        4500
10 Adelie  Torgersen           46            21.5               194        4200
# ℹ 162 more rows
# ℹ 2 more variables: sex <fct>, year <int>

Exercise 1.12

# Use filter() to extract the observations in the penguins dataset for which species == "Gentoo", island == "Biscoe", and body_mass_g is between 5,000 and 5,500.

penguins |>
  filter(species=="Gentoo", island == "Biscoe", body_mass_g >=5000, body_mass_g<=5500)

# A tibble: 39 × 8
   species island bill_length_mm bill_depth_mm flipper_length_mm body_mass_g
   <fct>   <fct>           <dbl>         <dbl>             <int>       <int>
 1 Gentoo  Biscoe           47.6          14.5               215        5400
 2 Gentoo  Biscoe           46.7          15.3               219        5200
 3 Gentoo  Biscoe           46.8          15.4               215        5150
 4 Gentoo  Biscoe           48.7          15.1               222        5350
 5 Gentoo  Biscoe           45.1          14.5               215        5000
 6 Gentoo  Biscoe           46.3          15.8               215        5050
 7 Gentoo  Biscoe           42.9          13.1               215        5000
 8 Gentoo  Biscoe           46.1          15.1               215        5100
 9 Gentoo  Biscoe           47.3          15.3               222        5250
10 Gentoo  Biscoe           45.1          14.5               207        5050
# ℹ 29 more rows
# ℹ 2 more variables: sex <fct>, year <int>
